// Jest Snapshot v1, https://goo.gl/fbAQLP

exports[`ContentPane can render without crashing 1`] = `
<main
  className="sc-bdVaJa hfeLXP"
>
  <h1>
    Heading
  </h1>
  <p>
    Page content
  </p>
</main>
`;
